<?xml version="1.0" encoding="UTF-8" standalone="no"?>
<!-- Created with Inkscape (http://www.inkscape.org/) -->

<svg
   xmlns:osb="http://www.openswatchbook.org/uri/2009/osb"
   xmlns:dc="http://purl.org/dc/elements/1.1/"
   xmlns:cc="http://creativecommons.org/ns#"
   xmlns:rdf="http://www.w3.org/1999/02/22-rdf-syntax-ns#"
   xmlns:svg="http://www.w3.org/2000/svg"
   xmlns="http://www.w3.org/2000/svg"
   xmlns:sodipodi="http://sodipodi.sourceforge.net/DTD/sodipodi-0.dtd"
   xmlns:inkscape="http://www.inkscape.org/namespaces/inkscape"
   width="210mm"
   height="297mm"
   viewBox="0 0 210 297"
   version="1.1"
   id="svg8"
   inkscape:version="0.92.4 (5da689c313, 2019-01-14)"
   sodipodi:docname="wizardguy.svg">
  <defs
     id="defs2">
    <linearGradient
       id="peach"
       osb:paint="solid"
       gradientTransform="matrix(0.35601605,0,0,0.17159898,-374.6166,-52.636724)">
      <stop
         style="stop-color:#ffccaa;stop-opacity:1;"
         offset="0"
         id="stop4697" />
    </linearGradient>
    <linearGradient
       id="pink"
       osb:paint="solid">
      <stop
         style="stop-color:#ff77a8;stop-opacity:1;"
         offset="0"
         id="stop4691" />
    </linearGradient>
    <linearGradient
       id="indigo"
       osb:paint="solid">
      <stop
         style="stop-color:#83769c;stop-opacity:1;"
         offset="0"
         id="stop4685" />
    </linearGradient>
    <linearGradient
       id="blue"
       osb:paint="solid"
       gradientTransform="matrix(0.01881701,0,0,0.0128537,-973.12471,-195.5599)">
      <stop
         style="stop-color:#29adff;stop-opacity:1;"
         offset="0"
         id="stop4679" />
    </linearGradient>
    <linearGradient
       id="green"
       osb:paint="solid">
      <stop
         style="stop-color:#00e436;stop-opacity:1;"
         offset="0"
         id="stop4669" />
    </linearGradient>
    <linearGradient
       id="yellow"
       osb:paint="solid">
      <stop
         style="stop-color:#ffec27;stop-opacity:1;"
         offset="0"
         id="stop4659" />
    </linearGradient>
    <linearGradient
       id="orange"
       osb:paint="solid">
      <stop
         style="stop-color:#ffa300;stop-opacity:1;"
         offset="0"
         id="stop4649" />
    </linearGradient>
    <linearGradient
       id="red"
       osb:paint="solid">
      <stop
         style="stop-color:#ff004d;stop-opacity:1;"
         offset="0"
         id="stop4639" />
    </linearGradient>
    <linearGradient
       id="white"
       osb:paint="solid"
       gradientTransform="matrix(6.0608392e-5,0,0,1.5970867e-4,-304.65482,-96.487605)">
      <stop
         style="stop-color:#fff1e8;stop-opacity:1;"
         offset="0"
         id="stop4629" />
    </linearGradient>
    <linearGradient
       id="light-grey"
       osb:paint="solid"
       gradientTransform="scale(0.26458333)">
      <stop
         style="stop-color:#c2c3c7;stop-opacity:1;"
         offset="0"
         id="stop4619" />
    </linearGradient>
    <linearGradient
       id="dark-grey"
       osb:paint="solid">
      <stop
         style="stop-color:#5f574f;stop-opacity:1;"
         offset="0"
         id="stop4609" />
    </linearGradient>
    <linearGradient
       id="linearGradient4603">
      <stop
         style="stop-color:#ab5236;stop-opacity:1;"
         offset="0"
         id="stop4601" />
    </linearGradient>
    <linearGradient
       id="brown"
       osb:paint="solid">
      <stop
         style="stop-color:#ab5236;stop-opacity:1;"
         offset="0"
         id="stop4591" />
    </linearGradient>
    <linearGradient
       id="dark-green"
       osb:paint="solid">
      <stop
         style="stop-color:#008751;stop-opacity:1;"
         offset="0"
         id="stop4581" />
    </linearGradient>
    <linearGradient
       id="dark-purple"
       osb:paint="solid">
      <stop
         style="stop-color:#7e2553;stop-opacity:1;"
         offset="0"
         id="stop4571" />
    </linearGradient>
    <linearGradient
       id="dark-blue"
       osb:paint="solid">
      <stop
         style="stop-color:#172b53;stop-opacity:1;"
         offset="0"
         id="stop4561" />
    </linearGradient>
    <linearGradient
       id="black"
       osb:paint="solid"
       gradientTransform="matrix(0.03366907,0,0,0.05198902,-1567.3453,-59.988947)">
      <stop
         style="stop-color:#000000;stop-opacity:1;"
         offset="0"
         id="stop4520" />
    </linearGradient>
  </defs>
  <sodipodi:namedview
     id="base"
     pagecolor="#ffffff"
     bordercolor="#666666"
     borderopacity="1.0"
     inkscape:pageopacity="0.0"
     inkscape:pageshadow="2"
     inkscape:zoom="0.49497475"
     inkscape:cx="61.238281"
     inkscape:cy="667.15795"
     inkscape:document-units="mm"
     inkscape:current-layer="layer1"
     showgrid="false"
     inkscape:window-width="1366"
     inkscape:window-height="706"
     inkscape:window-x="-8"
     inkscape:window-y="-8"
     inkscape:window-maximized="1"
     inkscape:snap-global="false"
     inkscape:snap-bbox="true" />
  <metadata
     id="metadata5">
    <rdf:RDF>
      <cc:Work
         rdf:about="">
        <dc:format>image/svg+xml</dc:format>
        <dc:type
           rdf:resource="http://purl.org/dc/dcmitype/StillImage" />
        <dc:title />
      </cc:Work>
    </rdf:RDF>
  </metadata>
  <g
     inkscape:label="Layer 1"
     inkscape:groupmode="layer"
     id="layer1">
    <rect
       style="fill:url(#peach);fill-opacity:1;stroke:none;stroke-width:0.48967636;stroke-opacity:1"
       id="rect4703"
       width="65.590111"
       height="39.758457"
       x="48.676041"
       y="64.161148"
       inkscape:export-xdpi="11.017958"
       inkscape:export-ydpi="11.017958" />
    <ellipse
       style="fill:url(#blue);fill-opacity:1;stroke:none;stroke-width:0.48967814;stroke-opacity:1"
       id="path4733"
       cx="80.156075"
       cy="68.698158"
       rx="54.358692"
       ry="5.4464278"
       transform="matrix(0.99999752,-0.00222903,0.00606636,0.9999816,0,0)"
       inkscape:export-xdpi="11.017958"
       inkscape:export-ydpi="11.017958" />
    <path
       sodipodi:type="star"
       style="fill:url(#blue);fill-opacity:1;stroke:none;stroke-width:0.26458332;stroke-opacity:1"
       id="path4735"
       sodipodi:sides="3"
       sodipodi:cx="99.407738"
       sodipodi:cy="36.196426"
       sodipodi:r1="30.625401"
       sodipodi:r2="15.312702"
       sodipodi:arg1="-1.1513189"
       sodipodi:arg2="-0.10412131"
       inkscape:flatsided="true"
       inkscape:rounded="0"
       inkscape:randomized="0"
       d="M 111.88095,8.2261899 117.39407,60.983663 68.948196,39.379426 Z"
       inkscape:transform-center-x="0.21549048"
       inkscape:transform-center-y="-3.6770733"
       transform="matrix(1.1782738,-0.44610008,0.48881796,0.85518046,-53.363763,66.684572)"
       inkscape:export-xdpi="11.017958"
       inkscape:export-ydpi="11.017958" />
    <g
       id="g4856"
       transform="matrix(2.3771198,0,0,1.7534279,-29.061504,29.823821)"
       inkscape:export-xdpi="11.017958"
       inkscape:export-ydpi="11.017958">
      <rect
         transform="matrix(1,0,-0.27389453,0.96175973,0,0)"
         ry="6.5416503"
         y="44.251602"
         x="43.158321"
         height="35.570732"
         width="31.054632"
         id="rect4847"
         style="fill:url(#blue);fill-opacity:1;stroke:none;stroke-width:0.31102186;stroke-opacity:1" />
      <rect
         style="fill:url(#blue);fill-opacity:1;stroke:none;stroke-width:0.31102186;stroke-opacity:1"
         id="rect4849"
         width="31.054632"
         height="35.570732"
         x="-49.316948"
         y="44.251602"
         ry="6.5416503"
         transform="matrix(-1,0,0.27389453,0.96175973,0,0)" />
    </g>
    <g
       id="g4745"
       style="fill:url(#light-grey)"
       transform="matrix(2.3771198,0,0,1.0570215,-125.26797,15.838091)"
       inkscape:export-xdpi="11.017958"
       inkscape:export-ydpi="11.017958">
      <g
         transform="matrix(1,0,0,1.5917841,0,-58.204903)"
         id="g4731"
         style="fill:url(#light-grey)">
        <path
           sodipodi:type="star"
           style="fill:url(#light-grey);fill-opacity:1;stroke:none;stroke-width:0.26458332;stroke-opacity:1"
           id="path4715"
           sodipodi:sides="3"
           sodipodi:cx="88.068451"
           sodipodi:cy="92.136909"
           sodipodi:r1="2.6726952"
           sodipodi:r2="1.3363476"
           sodipodi:arg1="2.9996956"
           sodipodi:arg2="4.0468932"
           inkscape:flatsided="true"
           inkscape:rounded="0"
           inkscape:randomized="0"
           d="m 85.422618,92.514886 3.641413,-2.858323 0.654674,4.582717 z"
           inkscape:transform-center-x="0.49779095"
           inkscape:transform-center-y="-0.18898925" />
        <path
           sodipodi:type="star"
           style="fill:url(#light-grey);fill-opacity:1;stroke:none;stroke-width:0.26458332;stroke-opacity:1"
           id="path4717"
           sodipodi:sides="5"
           sodipodi:cx="88.15609"
           sodipodi:cy="120.49087"
           sodipodi:r1="38.505367"
           sodipodi:r2="31.151497"
           sodipodi:arg1="0.54715341"
           sodipodi:arg2="1.1754719"
           inkscape:flatsided="true"
           inkscape:rounded="0"
           inkscape:randomized="0"
           d="M 121.04002,140.52361 79.265516,157.9558 49.777485,123.61273 73.327381,84.955354 117.37005,95.40685 Z"
           inkscape:transform-center-x="0.0027638764"
           inkscape:transform-center-y="1.0147154"
           transform="matrix(0.60425466,-0.06369157,0.14315321,0.26884434,16.340445,66.772699)" />
        <path
           sodipodi:type="star"
           style="fill:url(#light-grey);fill-opacity:1;stroke:none;stroke-width:0.26458332;stroke-opacity:1"
           id="path4723"
           sodipodi:sides="3"
           sodipodi:cx="89.918602"
           sodipodi:cy="99.162895"
           sodipodi:r1="17.968782"
           sodipodi:r2="8.9843922"
           sodipodi:arg1="1.1824776"
           sodipodi:arg2="2.2296752"
           inkscape:flatsided="true"
           inkscape:rounded="0"
           inkscape:randomized="0"
           d="M 96.722173,115.79385 72.11399,96.739485 100.91964,84.955354 Z"
           inkscape:transform-center-x="2.6862893"
           inkscape:transform-center-y="0.74463733"
           transform="matrix(0.78967008,0,0,0.61453718,24.988932,38.692047)" />
        <path
           transform="matrix(-0.78967008,0,0,0.61453718,148.02127,38.692047)"
           inkscape:transform-center-y="0.74463733"
           inkscape:transform-center-x="-2.6862848"
           d="M 96.722173,115.79385 72.11399,96.739485 100.91964,84.955354 Z"
           inkscape:randomized="0"
           inkscape:rounded="0"
           inkscape:flatsided="true"
           sodipodi:arg2="2.2296752"
           sodipodi:arg1="1.1824776"
           sodipodi:r2="8.9843922"
           sodipodi:r1="17.968782"
           sodipodi:cy="99.162895"
           sodipodi:cx="89.918602"
           sodipodi:sides="3"
           id="path4725"
           style="fill:url(#light-grey);fill-opacity:1;stroke:none;stroke-width:0.26458332;stroke-opacity:1"
           sodipodi:type="star" />
      </g>
      <path
         transform="matrix(0.67418712,0.01784882,-0.01412811,0.85173762,28.292315,-13.251207)"
         inkscape:transform-center-y="4.7579874"
         inkscape:transform-center-x="0.21669877"
         d="M 88.824405,158.28275 66.828617,124.11297 107.4184,122.14895 Z"
         inkscape:randomized="0"
         inkscape:rounded="0"
         inkscape:flatsided="true"
         sodipodi:arg2="2.5696445"
         sodipodi:arg1="1.5224469"
         sodipodi:r2="11.730971"
         sodipodi:r1="23.461943"
         sodipodi:cy="134.84822"
         sodipodi:cx="87.690475"
         sodipodi:sides="3"
         id="path4737"
         style="fill:url(#light-grey);fill-opacity:1;stroke:none;stroke-width:0.26458332;stroke-opacity:1"
         sodipodi:type="star" />
    </g>
    <rect
       style="fill:url(#peach);fill-opacity:1;stroke:none;stroke-width:0.50475776;stroke-opacity:1"
       id="rect4747"
       width="24.259357"
       height="7.0730157"
       x="68.806877"
       y="100.44385"
       inkscape:export-xdpi="11.017958"
       inkscape:export-ydpi="11.017958" />
    <rect
       style="fill:url(#black);fill-opacity:1;stroke:none;stroke-width:0.66697419;stroke-opacity:1"
       id="rect4749"
       width="15.27441"
       height="2.0208614"
       x="73.299339"
       y="102.99923"
       inkscape:export-xdpi="11.017958"
       inkscape:export-ydpi="11.017958" />
    <rect
       style="fill:url(#white);fill-opacity:1;stroke:none;stroke-width:0.5637207;stroke-opacity:1"
       id="rect4751"
       width="12.578925"
       height="14.435985"
       x="58.559498"
       y="77.138969"
       inkscape:export-xdpi="11.017958"
       inkscape:export-ydpi="11.017958" />
    <rect
       style="fill:url(#blue);fill-opacity:1;stroke:none;stroke-width:0.67276204;stroke-opacity:1"
       id="rect4767"
       width="12.578926"
       height="10.280433"
       x="58.559498"
       y="82.030144"
       inkscape:export-xdpi="11.017958"
       inkscape:export-ydpi="11.017958" />
    <rect
       style="fill:url(#black);fill-opacity:1;stroke:none;stroke-width:0.72668445;stroke-opacity:1"
       id="rect4797"
       width="8.9172192"
       height="6.6621571"
       x="62.22121"
       y="85.655846"
       inkscape:export-xdpi="11.017958"
       inkscape:export-ydpi="11.017958" />
    <rect
       y="77.138969"
       x="-105.73049"
       height="14.435985"
       width="12.578925"
       id="rect4829"
       style="fill:url(#white);fill-opacity:1;stroke:none;stroke-width:0.5637207;stroke-opacity:1"
       transform="scale(-1,1)"
       inkscape:export-xdpi="11.017958"
       inkscape:export-ydpi="11.017958" />
    <rect
       y="82.030144"
       x="-105.73049"
       height="10.280433"
       width="12.578926"
       id="rect4831"
       style="fill:url(#blue);fill-opacity:1;stroke:none;stroke-width:0.67276204;stroke-opacity:1"
       transform="scale(-1,1)"
       inkscape:export-xdpi="11.017958"
       inkscape:export-ydpi="11.017958" />
    <rect
       y="85.655846"
       x="-102.06878"
       height="6.6621571"
       width="8.9172192"
       id="rect4833"
       style="fill:url(#black);fill-opacity:1;stroke:none;stroke-width:0.72668445;stroke-opacity:1"
       transform="scale(-1,1)"
       inkscape:export-xdpi="11.017958"
       inkscape:export-ydpi="11.017958" />
  </g>
</svg>
